%YAML 1.1
%TAG !u! tag:unity3d.com,2011:
--- !u!74 &7400000
AnimationClip:
  m_ObjectHideFlags: 0
  m_CorrespondingSourceObject: {fileID: 0}
  m_PrefabInstance: {fileID: 0}
  m_PrefabAsset: {fileID: 0}
  m_Name: Attack
  serializedVersion: 6
  m_Legacy: 0
  m_Compressed: 0
  m_UseHighQualityCurve: 1
  m_RotationCurves: []
  m_CompressedRotationCurves: []
  m_EulerCurves: []
  m_PositionCurves: []
  m_ScaleCurves: []
  m_FloatCurves: []
  m_PPtrCurves:
  - curve:
    - time: 0
      value: {fileID: 21300000, guid: 29025280092048143b58757f29458fc8, type: 3}
    - time: 0.041666668
      value: {fileID: 21300000, guid: 81353e41d9b03a649ab32be387ee2c4f, type: 3}
    - time: 0.083333336
      value: {fileID: 21300000, guid: 826b863e7125e154692b474d2f13a139, type: 3}
    - time: 0.125
      value: {fileID: 21300000, guid: 30e80c91419292641b9064a7df076747, type: 3}
    - time: 0.16666667
      value: {fileID: 21300000, guid: 0994b4b2dde65eb439c0f6f6031e3fe1, type: 3}
    - time: 0.20833333
      value: {fileID: 21300000, guid: d6c8b85a2d5f1d24cb28090a17895c57, type: 3}
    - time: 0.25
      value: {fileID: 21300000, guid: 08e494770a4c8884c9205913dddba52e, type: 3}
    - time: 0.29166666
      value: {fileID: 21300000, guid: 266d486acd9fde147b499d66ec4da474, type: 3}
    - time: 0.33333334
      value: {fileID: 21300000, guid: 7b5c871a70722f84b82d274ee8e4673f, type: 3}
    - time: 0.375
      value: {fileID: 21300000, guid: a0a927f76930d684c9e3b3195a1cdf83, type: 3}
    attribute: m_Sprite
    path: 
    classID: 212
    script: {fileID: 0}
  m_SampleRate: 24
  m_WrapMode: 0
  m_Bounds:
    m_Center: {x: 0, y: 0, z: 0}
    m_Extent: {x: 0, y: 0, z: 0}
  m_ClipBindingConstant:
    genericBindings:
    - serializedVersion: 2
      path: 0
      attribute: 0
      script: {fileID: 0}
      typeID: 212
      customType: 23
      isPPtrCurve: 1
    pptrCurveMapping:
    - {fileID: 21300000, guid: 29025280092048143b58757f29458fc8, type: 3}
    - {fileID: 21300000, guid: 81353e41d9b03a649ab32be387ee2c4f, type: 3}
    - {fileID: 21300000, guid: 826b863e7125e154692b474d2f13a139, type: 3}
    - {fileID: 21300000, guid: 30e80c91419292641b9064a7df076747, type: 3}
    - {fileID: 21300000, guid: 0994b4b2dde65eb439c0f6f6031e3fe1, type: 3}
    - {fileID: 21300000, guid: d6c8b85a2d5f1d24cb28090a17895c57, type: 3}
    - {fileID: 21300000, guid: 08e494770a4c8884c9205913dddba52e, type: 3}
    - {fileID: 21300000, guid: 266d486acd9fde147b499d66ec4da474, type: 3}
    - {fileID: 21300000, guid: 7b5c871a70722f84b82d274ee8e4673f, type: 3}
    - {fileID: 21300000, guid: a0a927f76930d684c9e3b3195a1cdf83, type: 3}
  m_AnimationClipSettings:
    serializedVersion: 2
    m_AdditiveReferencePoseClip: {fileID: 0}
    m_AdditiveReferencePoseTime: 0
    m_StartTime: 0
    m_StopTime: 0.41666666
    m_OrientationOffsetY: 0
    m_Level: 0
    m_CycleOffset: 0
    m_HasAdditiveReferencePose: 0
    m_LoopTime: 1
    m_LoopBlend: 0
    m_LoopBlendOrientation: 0
    m_LoopBlendPositionY: 0
    m_LoopBlendPositionXZ: 0
    m_KeepOriginalOrientation: 0
    m_KeepOriginalPositionY: 1
    m_KeepOriginalPositionXZ: 0
    m_HeightFromFeet: 0
    m_Mirror: 0
  m_EditorCurves: []
  m_EulerEditorCurves: []
  m_HasGenericRootTransform: 0
  m_HasMotionFloatCurves: 0
  m_Events: []
