%YAML 1.1
%TAG !u! tag:unity3d.com,2011:
--- !u!74 &7400000
AnimationClip:
  m_ObjectHideFlags: 0
  m_CorrespondingSourceObject: {fileID: 0}
  m_PrefabInstance: {fileID: 0}
  m_PrefabAsset: {fileID: 0}
  m_Name: Run
  serializedVersion: 6
  m_Legacy: 0
  m_Compressed: 0
  m_UseHighQualityCurve: 1
  m_RotationCurves: []
  m_CompressedRotationCurves: []
  m_EulerCurves: []
  m_PositionCurves: []
  m_ScaleCurves: []
  m_FloatCurves: []
  m_PPtrCurves:
  - curve:
    - time: 0
      value: {fileID: 21300000, guid: 0188dcc9bb11549439ed481216869218, type: 3}
    - time: 0.041666668
      value: {fileID: 21300000, guid: 88924c1fc3c88764ca90c1b5fa330cc7, type: 3}
    - time: 0.083333336
      value: {fileID: 21300000, guid: 62e080975a1a3bf49a4dbc68028879cf, type: 3}
    - time: 0.125
      value: {fileID: 21300000, guid: 898fe64eecafb7949a8ca57d4aa8b4ed, type: 3}
    - time: 0.16666667
      value: {fileID: 21300000, guid: df317e2620be30641a383f09c422d156, type: 3}
    - time: 0.20833333
      value: {fileID: 21300000, guid: 60cc3ca26ef772f4b9b5b2cfb067a272, type: 3}
    - time: 0.25
      value: {fileID: 21300000, guid: e65e052f382d5404f8a3465d60d68f17, type: 3}
    - time: 0.29166666
      value: {fileID: 21300000, guid: b816b08cb7003474288f561a50d9a6e3, type: 3}
    - time: 0.33333334
      value: {fileID: 21300000, guid: e13425512e25d514d85fbcc04d42806e, type: 3}
    - time: 0.375
      value: {fileID: 21300000, guid: 93772c8ea38a5f8468965619bf51b138, type: 3}
    attribute: m_Sprite
    path: 
    classID: 212
    script: {fileID: 0}
  m_SampleRate: 24
  m_WrapMode: 0
  m_Bounds:
    m_Center: {x: 0, y: 0, z: 0}
    m_Extent: {x: 0, y: 0, z: 0}
  m_ClipBindingConstant:
    genericBindings:
    - serializedVersion: 2
      path: 0
      attribute: 0
      script: {fileID: 0}
      typeID: 212
      customType: 23
      isPPtrCurve: 1
    pptrCurveMapping:
    - {fileID: 21300000, guid: 0188dcc9bb11549439ed481216869218, type: 3}
    - {fileID: 21300000, guid: 88924c1fc3c88764ca90c1b5fa330cc7, type: 3}
    - {fileID: 21300000, guid: 62e080975a1a3bf49a4dbc68028879cf, type: 3}
    - {fileID: 21300000, guid: 898fe64eecafb7949a8ca57d4aa8b4ed, type: 3}
    - {fileID: 21300000, guid: df317e2620be30641a383f09c422d156, type: 3}
    - {fileID: 21300000, guid: 60cc3ca26ef772f4b9b5b2cfb067a272, type: 3}
    - {fileID: 21300000, guid: e65e052f382d5404f8a3465d60d68f17, type: 3}
    - {fileID: 21300000, guid: b816b08cb7003474288f561a50d9a6e3, type: 3}
    - {fileID: 21300000, guid: e13425512e25d514d85fbcc04d42806e, type: 3}
    - {fileID: 21300000, guid: 93772c8ea38a5f8468965619bf51b138, type: 3}
  m_AnimationClipSettings:
    serializedVersion: 2
    m_AdditiveReferencePoseClip: {fileID: 0}
    m_AdditiveReferencePoseTime: 0
    m_StartTime: 0
    m_StopTime: 0.41666666
    m_OrientationOffsetY: 0
    m_Level: 0
    m_CycleOffset: 0
    m_HasAdditiveReferencePose: 0
    m_LoopTime: 1
    m_LoopBlend: 0
    m_LoopBlendOrientation: 0
    m_LoopBlendPositionY: 0
    m_LoopBlendPositionXZ: 0
    m_KeepOriginalOrientation: 0
    m_KeepOriginalPositionY: 1
    m_KeepOriginalPositionXZ: 0
    m_HeightFromFeet: 0
    m_Mirror: 0
  m_EditorCurves: []
  m_EulerEditorCurves: []
  m_HasGenericRootTransform: 0
  m_HasMotionFloatCurves: 0
  m_Events: []
